Appl_Type~Appl_No~Product_No~Exclusivity_Code~Exclusivity_Date
N~009190~001~ODE-64~Apr 4, 2021
N~011366~002~ODE-96~Aug 7, 2022
N~017858~001~ODE-29~Aug 13, 2019
N~020287~006~NPP~May 16, 2022
N~020287~005~NPP~May 16, 2022
N~020287~004~NPP~May 16, 2022
N~020287~003~NPP~May 16, 2022
N~020287~002~NPP~May 16, 2022
N~020287~001~NPP~May 16, 2022
N~020351~002~I-752~Apr 5, 2020
N~020380~002~RTO~Jul 8, 2019
N~020702~002~M-204~Jun 23, 2020
N~020702~001~M-204~Jun 23, 2020
N~020725~005~M-93~Jul 29, 2019
N~020725~004~M-93~Jul 29, 2019
N~020808~002~I-752~Apr 5, 2020
N~019599~002~M-191~Nov 10, 2019
N~020965~001~I-766~Mar 9, 2021
N~021908~002~M-225~Apr 26, 2021
N~021908~001~M-225~Apr 26, 2021
N~021923~001~ODE-56~Nov 22, 2020
N~021928~002~M-192~Dec 16, 2019
N~021928~002~M-183~Aug 12, 2019
N~021928~002~M-237~Feb 22, 2022
N~021928~001~M-192~Dec 16, 2019
N~021928~001~M-183~Aug 12, 2019
N~021928~001~M-237~Feb 22, 2022
N~021929~002~M-210~Sep 11, 2020
N~021929~002~M-214~Dec 20, 2020
N~021929~001~NPP~Jan 27, 2020
N~021929~001~M-210~Sep 11, 2020
N~021929~001~M-214~Dec 20, 2020
N~021938~004~I-755~Nov 16, 2020
N~021938~003~I-755~Nov 16, 2020
N~021938~002~I-755~Nov 16, 2020
N~021938~001~I-755~Nov 16, 2020
N~021977~007~M-188~Oct 14, 2019
N~021977~006~M-188~Oct 14, 2019
N~021977~005~M-188~Oct 14, 2019
N~021977~004~M-188~Oct 14, 2019
N~021977~003~M-188~Oct 14, 2019
N~021977~002~M-188~Oct 14, 2019
N~021977~001~M-188~Oct 14, 2019
N~021986~006~ODE-164~Nov 9, 2024
N~021986~006~NPP~Nov 9, 2020
N~021986~006~I-791~Dec 21, 2021
N~021986~006~ODE-225~Dec 21, 2025
N~021986~005~ODE-164~Nov 9, 2024
N~021986~005~NPP~Nov 9, 2020
N~021986~005~I-791~Dec 21, 2021
N~021986~005~ODE-225~Dec 21, 2025
N~021986~004~ODE-164~Nov 9, 2024
N~021986~004~NPP~Nov 9, 2020
N~021986~004~I-791~Dec 21, 2021
N~021986~004~ODE-225~Dec 21, 2025
N~021986~003~ODE-164~Nov 9, 2024
N~021986~003~NPP~Nov 9, 2020
N~021986~003~I-791~Dec 21, 2021
N~021986~003~ODE-225~Dec 21, 2025
N~021986~002~ODE-164~Nov 9, 2024
N~021986~002~NPP~Nov 9, 2020
N~021986~002~I-791~Dec 21, 2021
N~021986~002~ODE-225~Dec 21, 2025
N~021986~001~ODE-164~Nov 9, 2024
N~021986~001~NPP~Nov 9, 2020
N~021986~001~I-791~Dec 21, 2021
N~021986~001~ODE-225~Dec 21, 2025
N~021992~003~M-222~Feb 6, 2021
N~021992~002~M-222~Feb 6, 2021
N~021992~001~M-222~Feb 6, 2021
N~022008~006~M-203~Mar 23, 2020
N~022008~005~M-203~Mar 23, 2020
N~022008~004~M-203~Mar 23, 2020
N~022008~003~M-203~Mar 23, 2020
N~022008~002~M-203~Mar 23, 2020
N~022008~001~M-203~Mar 23, 2020
N~022023~002~D-155~Feb 1, 2019
N~022023~002~NPP~Apr 3, 2021
N~022023~001~NPP~Apr 3, 2021
N~022059~001~M-235~Dec 6, 2021
N~022068~003~ODE-171~Mar 22, 2025
N~022068~003~ODE-172~Mar 22, 2025
N~022068~003~NPP~Mar 22, 2021
N~022068~002~ODE-171~Mar 22, 2025
N~022068~002~ODE-172~Mar 22, 2025
N~022068~002~NPP~Mar 22, 2021
N~022068~002~D-170~Dec 22, 2020
N~022068~001~ODE-171~Mar 22, 2025
N~022068~001~ODE-172~Mar 22, 2025
N~022068~001~NPP~Mar 22, 2021
N~022068~001~D-170~Dec 22, 2020
N~022074~003~ODE-82~Dec 16, 2021
N~022074~003~I-754~Sep 15, 2020
N~022074~003~ODE-156~Sep 15, 2024
N~022074~002~ODE-82~Dec 16, 2021
N~022074~002~I-754~Sep 15, 2020
N~022074~002~ODE-156~Sep 15, 2024
N~022074~001~ODE-82~Dec 16, 2021
N~022074~001~I-754~Sep 15, 2020
N~022074~001~ODE-156~Sep 15, 2024
N~022117~003~D-166~Jan 13, 2020
N~022117~003~I-597~Jan 13, 2020
N~022117~002~D-166~Jan 13, 2020
N~022117~002~I-597~Jan 13, 2020
N~022117~001~D-166~Jan 13, 2020
N~022117~001~I-597~Jan 13, 2020
N~022127~001~NPP~Nov 25, 2019
N~022128~003~NPP~Nov 4, 2019
N~022128~003~NS~Nov 4, 2019
N~022128~004~NPP~Nov 4, 2019
N~022128~004~NS~Nov 4, 2019
N~022128~002~NPP~Nov 4, 2019
N~022128~002~NS~Nov 4, 2019
N~022128~001~NPP~Nov 4, 2019
N~022128~001~NS~Nov 4, 2019
N~022145~002~NS~May 26, 2020
N~022145~002~NPP~Nov 22, 2020
N~022145~001~D-167~May 26, 2020
N~022145~001~NPP~Nov 22, 2020
N~021077~001~M-214~Dec 20, 2020
N~021077~003~M-214~Dec 20, 2020
N~021077~002~M-214~Dec 20, 2020
N~021083~001~ODE-92~May 28, 2022
N~021085~001~M-185~Sep 27, 2019
N~021110~004~ODE-92~May 28, 2022
N~021110~003~ODE-92~May 28, 2022
N~021110~002~ODE-92~May 28, 2022
N~021110~001~ODE-92~May 28, 2022
N~021196~001~NPP~Oct 26, 2021
N~021196~001~ODE-231~Oct 26, 2025
N~021232~004~D-169~Sep 1, 2020
N~021232~003~D-169~Sep 1, 2020
N~021232~002~D-169~Sep 1, 2020
N~021232~001~D-169~Sep 1, 2020
N~021248~002~ODE-167~Jan 12, 2025
N~021248~001~ODE-167~Jan 12, 2025
N~021252~001~M-187~Sep 2, 2019
N~021277~001~M-185~Sep 27, 2019
N~021290~002~NPP~Sep 5, 2020
N~021290~001~NPP~Sep 5, 2020
N~021324~001~NPP~Apr 29, 2019
N~021324~001~M-178~Apr 29, 2019
N~021344~001~I-725~Feb 19, 2019
N~021344~001~I-749~Aug 25, 2020
N~021356~004~NPP~Dec 11, 2021
N~021356~003~NPP~Dec 11, 2021
N~021356~002~NPP~Dec 11, 2021
N~021356~001~NPP~Dec 11, 2021
N~021366~005~ODE-118~May 27, 2023
N~021366~004~I-732~May 27, 2019
N~021366~004~ODE-118~May 27, 2023
N~021366~003~ODE-118~May 27, 2023
N~021366~002~ODE-118~May 27, 2023
N~021368~004~M-219~Feb 15, 2021
N~021368~003~M-219~Feb 15, 2021
N~021368~002~M-219~Feb 15, 2021
N~021368~001~M-219~Feb 15, 2021
N~021436~006~ODE-80~Dec 12, 2021
N~021436~005~ODE-80~Dec 12, 2021
N~021436~004~ODE-80~Dec 12, 2021
N~021436~003~ODE-80~Dec 12, 2021
N~021436~002~ODE-80~Dec 12, 2021
N~021436~001~ODE-80~Dec 12, 2021
N~021446~008~M-193~Dec 22, 2019
N~021446~008~NPP~May 3, 2021
N~021446~007~M-193~Dec 22, 2019
N~021446~007~NPP~May 3, 2021
N~021446~006~M-193~Dec 22, 2019
N~021446~006~NPP~May 3, 2021
N~021446~005~M-193~Dec 22, 2019
N~021446~005~NPP~May 3, 2021
N~021446~004~M-193~Dec 22, 2019
N~021446~004~NPP~May 3, 2021
N~021446~003~M-193~Dec 22, 2019
N~021446~003~NPP~May 3, 2021
N~021446~002~M-193~Dec 22, 2019
N~021446~002~NPP~May 3, 2021
N~021446~001~M-193~Dec 22, 2019
N~021446~001~NPP~May 3, 2021
N~021524~003~M-221~Feb 14, 2021
N~021524~002~M-221~Feb 14, 2021
N~021524~001~M-221~Feb 14, 2021
N~021572~003~NPP~Mar 29, 2020
N~021572~003~M-211~Sep 1, 2020
N~021572~002~NPP~Mar 29, 2020
N~021572~002~M-211~Sep 1, 2020
N~021588~002~ODE-40~Jan 25, 2020
N~021588~001~ODE-40~Jan 25, 2020
N~021602~001~ODE-76~Oct 8, 2021
N~021606~003~ODE-125~Oct 18, 2023
N~021606~003~NPP~Oct 18, 2019
N~021606~003~NPP~Oct 18, 2019
N~021606~002~ODE-125~Oct 18, 2023
N~021606~002~NPP~Oct 18, 2019
N~021606~002~NPP~Oct 18, 2019
N~021606~001~ODE-125~Oct 18, 2023
N~021606~001~NPP~Oct 18, 2019
N~021606~001~NPP~Oct 18, 2019
N~021660~001~ODE-52~Sep 6, 2020
N~021688~003~ODE-78~Nov 21, 2021
N~021688~003~M-200~May 23, 2020
N~021688~002~ODE-78~Nov 21, 2021
N~021688~002~M-200~May 23, 2020
N~021688~001~ODE-78~Nov 21, 2021
N~021688~001~M-200~May 23, 2020
N~021713~001~ODE-80~Dec 12, 2021
N~021729~005~ODE-80~Dec 12, 2021
N~021729~004~ODE-80~Dec 12, 2021
N~021729~003~ODE-80~Dec 12, 2021
N~021729~002~ODE-80~Dec 12, 2021
N~021743~003~M-181~Jun 1, 2019
N~021743~003~M-190~Oct 18, 2019
N~021743~003~D-164~May 20, 2019
N~021743~002~M-181~Jun 1, 2019
N~021743~002~M-190~Oct 18, 2019
N~021743~002~D-164~May 20, 2019
N~021743~001~M-181~Jun 1, 2019
N~021743~001~M-190~Oct 18, 2019
N~021743~001~D-164~May 20, 2019
N~021856~002~M-205~Aug 15, 2020
N~021856~001~M-205~Aug 15, 2020
N~021866~001~ODE-80~Dec 12, 2021
N~021880~006~ODE-49~Jun 5, 2020
N~021880~006~ODE-88~Feb 17, 2022
N~021880~006~ODE-131~Feb 22, 2024
N~021880~006~I-796~May 28, 2022
N~021880~006~I-797~May 28, 2022
N~021880~005~ODE-49~Jun 5, 2020
N~021880~005~ODE-88~Feb 17, 2022
N~021880~005~ODE-131~Feb 22, 2024
N~021880~005~I-796~May 28, 2022
N~021880~005~I-797~May 28, 2022
N~021880~004~ODE-49~Jun 5, 2020
N~021880~004~ODE-88~Feb 17, 2022
N~021880~004~ODE-131~Feb 22, 2024
N~021880~004~I-796~May 28, 2022
N~021880~004~I-797~May 28, 2022
N~021880~003~ODE-49~Jun 5, 2020
N~021880~003~ODE-88~Feb 17, 2022
N~021880~003~ODE-131~Feb 22, 2024
N~021880~003~I-797~May 28, 2022
N~021880~003~I-796~May 28, 2022
N~021880~002~ODE-49~Jun 5, 2020
N~021880~002~ODE-88~Feb 17, 2022
N~021880~002~ODE-131~Feb 22, 2024
N~021880~002~I-797~May 28, 2022
N~021880~002~I-796~May 28, 2022
N~021880~001~ODE-49~Jun 5, 2020
N~021880~001~ODE-88~Feb 17, 2022
N~021880~001~ODE-131~Feb 22, 2024
N~021880~001~I-796~May 28, 2022
N~021880~001~I-797~May 28, 2022
N~021882~003~ODE-39~Jan 23, 2020
N~021882~003~M-239~Dec 12, 2021
N~021882~002~ODE-39~Jan 23, 2020
N~021882~002~M-239~Dec 12, 2021
N~021882~001~ODE-39~Jan 23, 2020
N~021882~001~M-239~Dec 12, 2021
N~022159~001~NPP~Mar 18, 2019
N~022161~001~M-194~Jan 17, 2020
N~022180~001~I-767~Feb 2, 2021
N~022187~003~NPP~Jul 16, 2021
N~022187~002~NPP~Jul 16, 2021
N~022187~001~NPP~Jul 16, 2021
N~022192~007~M-180~May 26, 2019
N~022192~006~M-180~May 26, 2019
N~022192~005~M-180~May 26, 2019
N~022192~004~M-180~May 26, 2019
N~022192~003~M-180~May 26, 2019
N~022192~002~M-180~May 26, 2019
N~022192~001~M-180~May 26, 2019
N~022200~002~M-224~Apr 2, 2021
N~022200~001~M-212~Oct 20, 2020
N~022200~001~M-224~Apr 2, 2021
N~022212~001~ODE-26~Jun 13, 2019
N~022253~004~NPP~Nov 3, 2020
N~022253~003~NPP~Nov 3, 2020
N~022253~002~NPP~Nov 3, 2020
N~022253~001~NPP~Nov 3, 2020
N~022254~001~M-217~Nov 3, 2020
N~022255~001~NPP~Nov 3, 2020
N~022264~005~M-215~Dec 20, 2020
N~022264~004~M-215~Dec 20, 2020
N~022264~003~M-215~Dec 20, 2020
N~022264~002~M-215~Dec 20, 2020
N~022264~001~M-215~Dec 20, 2020
N~022271~003~M-177~Apr 5, 2019
N~022271~002~M-177~Apr 5, 2019
N~022271~001~M-177~Apr 5, 2019
N~022287~002~NPP~Jul 8, 2019
N~022287~002~NPP~Jul 8, 2019
N~022287~002~NPP~Jul 8, 2019
N~022287~001~NPP~Jul 8, 2019
N~022287~001~NPP~Jul 8, 2019
N~022287~001~NPP~Jul 8, 2019
N~022291~005~ODE-75~Aug 26, 2021
N~022291~005~ODE-210~Nov 16, 2025
N~022291~004~ODE-75~Aug 26, 2021
N~022291~004~ODE-210~Nov 16, 2025
N~022291~003~ODE-75~Aug 26, 2021
N~022291~003~ODE-210~Nov 16, 2025
N~022291~002~ODE-75~Aug 26, 2021
N~022291~002~ODE-210~Nov 16, 2025
N~022291~001~ODE-75~Aug 26, 2021
N~022291~001~ODE-210~Nov 16, 2025
N~022307~002~M-182~Jul 12, 2019
N~022307~001~M-182~Jul 12, 2019
N~022318~002~NPP~Nov 25, 2019
N~022318~001~NPP~Nov 25, 2019
N~022334~004~ODE-24~Apr 26, 2019
N~022334~004~I-724~Feb 26, 2019
N~022334~004~ODE-108~Feb 26, 2023
N~022334~003~ODE-24~Apr 26, 2019
N~022334~003~I-724~Feb 26, 2019
N~022334~003~ODE-108~Feb 26, 2023
N~022334~002~ODE-24~Apr 26, 2019
N~022334~002~I-724~Feb 26, 2019
N~022334~002~ODE-108~Feb 26, 2023
N~022334~001~ODE-24~Apr 26, 2019
N~022334~001~I-724~Feb 26, 2019
N~022334~001~ODE-108~Feb 26, 2023
N~022341~001~M-176~Apr 22, 2019
N~022341~001~I-750~Aug 25, 2020
N~022350~002~M-175~Apr 5, 2019
N~022350~002~M-198~Feb 27, 2020
N~022350~001~M-175~Apr 5, 2019
N~022350~001~M-198~Feb 27, 2020
N~022363~003~NPP~May 16, 2022
N~022363~002~NPP~May 16, 2022
N~022363~001~NPP~May 16, 2022
N~022399~002~ODE-25~Jun 6, 2019
N~022399~001~ODE-25~Jun 6, 2019
N~022406~001~D-168~Oct 27, 2020
N~022426~006~M-177~Apr 5, 2019
N~022426~005~M-177~Apr 5, 2019
N~022426~004~M-177~Apr 5, 2019
N~022426~003~M-177~Apr 5, 2019
N~022426~002~M-177~Apr 5, 2019
N~022426~001~M-177~Apr 5, 2019
N~022450~001~M-196~Jan 27, 2020
N~022465~002~ODE-23~Apr 26, 2019
N~022465~001~ODE-23~Apr 26, 2019
N~022488~001~M-193~Dec 22, 2019
N~022488~001~NPP~May 3, 2021
N~022496~002~I-771~Apr 6, 2021
N~022496~001~I-771~Apr 6, 2021
N~022511~002~NPP~Jul 6, 2020
N~022511~001~NPP~Jul 6, 2020
N~022518~002~M-214~Dec 20, 2020
N~022518~001~M-214~Dec 20, 2020
N~022522~002~NS~Jan 23, 2021
N~022522~001~D-171~Jan 23, 2021
N~022522~001~M-208~Aug 31, 2020
N~022527~002~NS~May 11, 2021
N~022527~001~NPP~May 11, 2021
N~022555~001~M-220~Feb 15, 2021
N~022572~001~ODE-21~Feb 7, 2019
N~022577~001~NPP~Dec 11, 2021
N~201277~002~I-731~Apr 27, 2019
N~201532~001~I-721~Jan 28, 2019
N~201532~001~ODE-107~Jan 28, 2023
N~202022~001~M-223~Feb 1, 2021
A~091424~002~PC~Aug 21, 2019
N~200327~002~NPP~May 27, 2019
N~200327~002~NPP~May 27, 2019
N~200327~001~NPP~May 27, 2019
N~200327~001~NPP~May 27, 2019
N~200603~005~NPP~Jan 27, 2020
N~200603~005~M-195~Jan 27, 2020
N~200603~005~NPP~Mar 5, 2021
N~200603~003~NPP~Jan 27, 2020
N~200603~003~M-195~Jan 27, 2020
N~200603~003~NPP~Mar 5, 2021
N~200603~002~NPP~Jan 27, 2020
N~200603~002~NPP~Mar 5, 2021
N~200603~001~NPP~Jan 27, 2020
N~200603~001~M-195~Jan 27, 2020
N~200603~001~NPP~Mar 5, 2021
N~200677~003~ODE-34~Dec 14, 2019
N~200677~002~ODE-34~Dec 14, 2019
N~200677~001~ODE-34~Dec 14, 2019
N~200678~003~M-175~Apr 5, 2019
N~200678~003~M-198~Feb 27, 2020
N~200678~002~M-175~Apr 5, 2019
N~200678~002~M-198~Feb 27, 2020
N~200678~001~M-175~Apr 5, 2019
N~200678~001~M-198~Feb 27, 2020
N~200740~001~ODE-31~Oct 2, 2019
N~201023~001~M-201~May 17, 2020
N~201023~001~M-209~Sep 14, 2020
N~205874~001~I-790~Nov 6, 2020
N~204760~002~NCE~Sep 16, 2019
N~204760~001~NCE~Sep 16, 2019
N~206619~001~NCE~Dec 19, 2019
N~206619~001~D-163~Apr 22, 2019
N~021936~002~NPP~Feb 15, 2020
N~021936~001~NPP~Feb 15, 2020
N~205436~001~NCE~Jun 20, 2019
N~205435~001~NCE~Jun 20, 2019
N~205834~001~NCE~Oct 10, 2019
N~205834~001~D-158~Feb 12, 2019
N~205834~001~D-159~Feb 12, 2019
N~205834~001~D-160~Feb 12, 2019
N~205834~001~NPP~Apr 7, 2020
N~205834~001~ODE-136~Apr 7, 2024
N~204671~001~ODE-135~Apr 7, 2024
N~204671~001~NPP~Apr 7, 2020
N~204977~001~NCE~Apr 23, 2019
N~205919~001~ODE-65~Apr 28, 2021
N~206426~001~NCE~Dec 19, 2019
N~206426~001~NPP~Sep 20, 2020
N~206307~001~NCE~Dec 17, 2019
N~205755~001~NCE~Apr 29, 2019
N~205755~001~ODE-66~Apr 29, 2021
N~205755~001~M-199~May 26, 2020
N~205755~001~ODE-145~May 26, 2024
N~021883~001~NCE~May 23, 2019
N~021883~001~D-154~Jan 20, 2019
N~205388~001~NPP~Dec 8, 2020
N~205060~001~NCE~May 5, 2019
N~206256~001~NCE~Jul 3, 2019
N~206256~001~ODE-68~Jul 3, 2021
N~203567~001~NCE~Jun 6, 2019
N~205494~001~ODE-73~Aug 19, 2021
N~205494~001~NCE~Aug 19, 2019
N~202570~002~ODE-111~Mar 11, 2023
N~202570~001~ODE-111~Mar 11, 2023
N~202611~002~I-777~Apr 27, 2021
N~202611~001~I-777~Apr 27, 2021
N~202714~002~ODE-27~Jul 20, 2019
N~202714~002~I-722~Jan 21, 2019
N~202714~002~I-723~Jan 21, 2019
N~202714~002~D-172~Sep 28, 2021
N~202714~003~D-172~Sep 28, 2021
N~202714~001~ODE-27~Jul 20, 2019
N~202714~001~I-722~Jan 21, 2019
N~202714~001~I-723~Jan 21, 2019
N~202714~001~D-172~Sep 28, 2021
N~202806~002~ODE-58~Jan 9, 2021
N~202806~002~ODE-47~May 29, 2020
N~202806~002~I-745~Jun 22, 2020
N~202806~002~ODE-182~Apr 30, 2025
N~202806~002~ODE-183~May 4, 2025
N~202806~002~ODE-147~Jun 22, 2024
N~202806~002~I-778~Apr 30, 2021
N~202806~002~I-781~May 4, 2021
N~202806~001~ODE-58~Jan 9, 2021
N~202806~001~ODE-47~May 29, 2020
N~202806~001~I-745~Jun 22, 2020
N~202806~001~ODE-182~Apr 30, 2025
N~202806~001~ODE-183~May 4, 2025
N~202806~001~ODE-147~Jun 22, 2024
N~202806~001~I-778~Apr 30, 2021
N~202806~001~I-781~May 4, 2021
N~202811~003~NS~Jan 25, 2020
N~202872~001~M-229~Jul 20, 2021
N~202971~004~I-746~Jul 27, 2020
N~202971~003~I-746~Jul 27, 2020
N~202971~002~I-746~Jul 27, 2020
N~202971~001~I-746~Jul 27, 2020
N~203045~002~NPP~Nov 22, 2020
N~203045~001~NPP~Nov 22, 2020
N~203085~001~ODE-44~Feb 25, 2020
N~203085~001~ODE-139~Apr 27, 2024
N~203085~001~I-744~Apr 27, 2020
N~203100~001~NPP~Jan 27, 2020
N~203188~002~ODE-199~Aug 15, 2025
N~203188~002~ODE-187~Dec 29, 2021
N~203188~002~ODE-190~May 17, 2024
N~203188~002~ODE-186~Feb 21, 2021
N~203188~002~ODE-189~Jul 31, 2024
N~203188~002~NPP~Jul 31, 2020
N~203188~001~ODE-20~Jan 31, 2019
N~203188~001~NPP~Jul 31, 2020
N~203188~001~ODE-186~Feb 21, 2021
N~203188~001~ODE-187~Dec 29, 2021
N~203188~001~ODE-189~Jul 31, 2024
N~203188~001~ODE-190~May 17, 2024
N~203188~001~ODE-199~Aug 15, 2025
N~203214~002~I-780~May 30, 2021
N~203214~001~I-761~Dec 14, 2020
N~203214~001~I-780~May 30, 2021
N~203284~001~ODE-42~Feb 1, 2020
N~203284~001~NPP~Apr 28, 2020
N~203284~001~ODE-157~Apr 28, 2024
N~203340~001~ODE-46~May 10, 2020
N~203341~003~ODE-163~Dec 19, 2024
N~203341~003~ODE-30~Sep 4, 2019
N~203341~003~I-759~Dec 19, 2020
N~203341~002~ODE-30~Sep 4, 2019
N~203341~002~ODE-163~Dec 19, 2024
N~203341~002~I-759~Dec 19, 2020
N~203341~001~ODE-30~Sep 4, 2019
N~203341~001~ODE-163~Dec 19, 2024
N~203341~001~I-759~Dec 19, 2020
N~203389~002~ODE-45~Apr 30, 2020
N~203389~002~ODE-97~Aug 14, 2022
N~203389~002~M-216~Dec 22, 2020
N~203389~002~ODE-162~Dec 22, 2024
N~203389~001~ODE-45~Apr 30, 2020
N~203389~001~ODE-97~Aug 14, 2022
N~203389~001~M-216~Dec 22, 2020
N~203389~001~ODE-162~Dec 22, 2024
N~203414~002~M-177~Apr 5, 2019
N~203414~001~M-177~Apr 5, 2019
N~203415~001~I-786~Jul 13, 2021
N~203441~001~ODE-37~Dec 21, 2019
N~203469~003~ODE-35~Dec 14, 2019
N~203469~002~ODE-35~Dec 14, 2019
N~203469~001~ODE-35~Dec 14, 2019
N~203505~001~I-793~Jan 25, 2022
N~203568~001~ODE-41~Jan 29, 2020
N~203585~001~ODE-32~Oct 26, 2019
N~206334~001~NCE~Aug 6, 2019
N~204353~001~M-197~Feb 1, 2020
N~204353~001~I-735~May 20, 2019
N~204353~001~I-788~Oct 29, 2021
N~204353~004~M-197~Feb 1, 2020
N~204353~004~I-735~May 20, 2019
N~204353~004~I-788~Oct 29, 2021
N~204353~003~M-197~Feb 1, 2020
N~204353~003~I-735~May 20, 2019
N~204353~003~I-788~Oct 29, 2021
N~204353~002~M-197~Feb 1, 2020
N~204353~002~I-735~May 20, 2019
N~204353~002~I-788~Oct 29, 2021
N~203756~002~ODE-33~Nov 29, 2019
N~203756~001~ODE-33~Nov 29, 2019
N~203858~004~ODE-36~Dec 21, 2019
N~203858~005~ODE-36~Dec 21, 2019
N~203858~006~ODE-36~Dec 21, 2019
N~203858~003~ODE-36~Dec 21, 2019
N~203858~002~ODE-36~Dec 21, 2019
N~203858~001~ODE-36~Dec 21, 2019
N~203985~003~ODE-169~Apr 10, 2025
N~203985~003~I-773~Apr 10, 2021
N~203985~002~ODE-169~Apr 10, 2025
N~203985~002~I-773~Apr 10, 2021
N~203985~001~I-773~Apr 10, 2021
N~203985~001~ODE-169~Apr 10, 2025
N~204026~004~ODE-43~Feb 8, 2020
N~204026~003~ODE-43~Feb 8, 2020
N~204026~002~ODE-43~Feb 8, 2020
N~204026~001~ODE-43~Feb 8, 2020
N~204042~002~M-197~Feb 1, 2020
N~204042~002~I-733~May 20, 2019
N~204042~002~I-788~Oct 29, 2021
N~204042~001~M-197~Feb 1, 2020
N~204042~001~I-733~May 20, 2019
N~204042~001~I-788~Oct 29, 2021
N~204114~003~ODE-57~Jan 8, 2021
N~204114~003~ODE-48~May 29, 2020
N~204114~003~I-745~Jun 22, 2020
N~204114~003~ODE-182~Apr 30, 2025
N~204114~003~ODE-183~May 4, 2025
N~204114~003~ODE-148~Jun 22, 2024
N~204114~003~I-778~Apr 30, 2021
N~204114~003~I-781~May 4, 2021
N~204114~002~ODE-57~Jan 8, 2021
N~204114~002~ODE-48~May 29, 2020
N~204114~002~I-745~Jun 22, 2020
N~204114~002~ODE-182~Apr 30, 2025
N~204114~002~ODE-183~May 4, 2025
N~204114~002~ODE-148~Jun 22, 2024
N~204114~002~I-778~Apr 30, 2021
N~204114~002~I-781~May 4, 2021
N~204114~001~ODE-57~Jan 8, 2021
N~204114~001~ODE-48~May 29, 2020
N~204114~001~I-745~Jun 22, 2020
N~204114~001~ODE-182~Apr 30, 2025
N~204114~001~ODE-183~May 4, 2025
N~204114~001~ODE-148~Jun 22, 2024
N~204114~001~I-778~Apr 30, 2021
N~204114~001~I-781~May 4, 2021
N~204275~002~M-202~May 15, 2020
N~204275~001~M-202~May 15, 2020
N~204384~001~ODE-38~Dec 28, 2019
N~204781~005~NPP~Aug 25, 2020
N~204781~004~NPP~Aug 25, 2020
N~204781~003~NPP~Aug 25, 2020
N~204781~002~NPP~Aug 25, 2020
N~204781~001~NPP~Aug 25, 2020
N~204886~001~NCE~May 8, 2019
N~201292~003~I-763~Jan 12, 2021
N~201292~003~ODE-50~Jul 12, 2020
N~201292~003~I-730~Apr 15, 2019
N~201292~003~ODE-115~Apr 15, 2023
N~201292~003~ODE-230~Jan 12, 2025
N~201292~001~I-763~Jan 12, 2021
N~201292~001~ODE-50~Jul 12, 2020
N~201292~001~ODE-115~Apr 15, 2023
N~201292~001~ODE-230~Jan 12, 2025
N~201292~002~I-763~Jan 12, 2021
N~201292~002~ODE-50~Jul 12, 2020
N~201292~002~ODE-115~Apr 15, 2023
N~201292~002~ODE-230~Jan 12, 2025
N~204410~001~ODE-54~Oct 18, 2020
N~204569~002~NCE~Aug 13, 2019
N~204569~004~NCE~Aug 13, 2019
N~204569~003~NCE~Aug 13, 2019
N~204569~001~NCE~Aug 13, 2019
N~204427~001~NCE~Jul 7, 2019
N~203496~005~D-156~Jan 28, 2019
N~203496~005~D-157~Jan 28, 2019
N~203496~003~D-156~Jan 28, 2019
N~203496~003~D-157~Jan 28, 2019
N~203496~002~D-156~Jan 28, 2019
N~203496~002~D-157~Jan 28, 2019
N~203496~004~D-156~Jan 28, 2019
N~203496~004~D-157~Jan 28, 2019
N~203496~001~D-156~Jan 28, 2019
N~203496~001~D-157~Jan 28, 2019
N~205410~001~ODE-62~Mar 14, 2021
N~204677~001~NCE~Mar 21, 2019
N~205437~003~NCE~Mar 21, 2019
N~205437~002~NCE~Mar 21, 2019
N~205437~001~NCE~Mar 21, 2019
N~204684~001~ODE-63~Mar 19, 2021
N~204684~001~NCE~Mar 19, 2019
N~205552~002~M-236~Jan 25, 2022
N~205552~001~ODE-55~Nov 13, 2020
N~205552~001~ODE-60~Feb 12, 2021
N~205552~001~ODE-72~Jul 28, 2021
N~205552~001~ODE-86~Jan 29, 2022
N~205552~001~I-741~Jan 18, 2020
N~205552~001~ODE-128~Jan 18, 2024
N~205552~001~ODE-109~Mar 4, 2023
N~205552~001~I-729~Mar 4, 2019
N~205552~001~I-736~May 6, 2019
N~205552~001~D-165~May 6, 2019
N~205552~001~ODE-117~May 6, 2023
N~205552~001~I-737~May 6, 2019
N~205552~001~ODE-152~Aug 2, 2024
N~205552~001~I-753~Aug 2, 2020
N~205552~001~M-236~Jan 25, 2022
N~205123~001~M-171~Feb 26, 2019
N~205123~001~M-179~May 20, 2019
N~205649~005~NCE~Jan 8, 2019
N~205649~003~NCE~Jan 8, 2019
N~205649~004~NCE~Jan 8, 2019
N~205649~002~NCE~Jan 8, 2019
N~205649~001~NCE~Jan 8, 2019
N~205718~001~NCE~Oct 10, 2019
N~205786~001~NPP~Nov 22, 2020
N~204153~001~NPP~Feb 20, 2021
N~205677~001~NCE~Jan 31, 2019
N~205677~001~ODE-59~Jan 31, 2021
N~204819~004~ODE-53~Oct 8, 2020
N~204819~002~ODE-53~Oct 8, 2020
N~204819~003~ODE-53~Oct 8, 2020
N~204819~005~ODE-53~Oct 8, 2020
N~204819~001~ODE-53~Oct 8, 2020
A~091002~002~PC~Nov 5, 2019
A~091002~001~PC~Nov 5, 2019
A~091002~003~PC~Nov 5, 2019
N~202293~002~NCE~Jan 8, 2019
N~202293~002~M-212~Oct 20, 2020
N~202293~002~M-238~Feb 22, 2022
N~202293~001~NCE~Jan 8, 2019
N~202293~001~M-212~Oct 20, 2020
N~202293~001~M-238~Feb 22, 2022
N~203202~003~ODE-61~Feb 18, 2021
N~203202~003~NCE~Feb 18, 2019
N~203202~002~NCE~Feb 18, 2019
N~203202~002~ODE-61~Feb 18, 2021
N~203202~001~ODE-61~Feb 18, 2021
N~203202~001~NCE~Feb 18, 2019
N~204629~001~NCE~Aug 1, 2019
N~204629~001~I-739~Dec 2, 2019
N~204629~001~M-174~Mar 18, 2019
N~204629~002~NCE~Aug 1, 2019
N~204629~002~I-739~Dec 2, 2019
N~204629~002~M-174~Mar 18, 2019
N~205625~003~NS~May 17, 2021
N~205625~001~NPP~May 17, 2021
N~022535~001~NCE~Oct 15, 2019
N~022535~001~ODE-77~Oct 15, 2021
N~202107~001~ODE-22~Feb 17, 2019
N~202192~005~ODE-79~Dec 4, 2021
N~202192~004~ODE-79~Dec 4, 2021
N~202192~003~ODE-79~Dec 4, 2021
N~202192~002~ODE-79~Dec 4, 2021
N~202192~001~ODE-79~Dec 4, 2021
N~202207~001~ODE-67~Jun 13, 2021
N~202379~002~I-765~Feb 7, 2021
N~202379~001~I-765~Feb 7, 2021
N~202429~001~M-184~Aug 31, 2019
N~202429~001~ODE-158~Nov 6, 2024
N~202429~001~I-757~Nov 6, 2020
N~202497~001~ODE-28~Aug 9, 2019
N~202535~001~NPP~Aug 15, 2021
A~201046~001~PC~May 27, 2019
A~201046~002~PC~May 27, 2019
N~205858~002~NCE~Jul 23, 2019
N~205858~002~ODE-70~Jul 23, 2021
N~205858~002~ODE-71~Jul 23, 2021
N~205858~001~NCE~Jul 23, 2019
N~205858~001~ODE-70~Jul 23, 2021
N~205858~001~ODE-71~Jul 23, 2021
N~203684~001~NCE~Oct 10, 2019
N~203684~001~I-728~Mar 31, 2019
N~205832~001~NCE~Oct 15, 2019
N~205832~001~ODE-77~Oct 15, 2021
N~205832~002~NCE~Oct 15, 2019
N~205832~002~ODE-77~Oct 15, 2021
N~202317~001~ODE-51~Aug 23, 2020
N~204790~003~I-758~Nov 21, 2020
N~204790~002~I-758~Nov 21, 2020
N~204790~001~I-758~Nov 21, 2020
N~206829~001~NCE~Dec 19, 2019
N~206162~001~NCE~Dec 19, 2019
N~206162~001~ODE-83~Dec 19, 2021
N~203255~004~I-785~Jun 29, 2021
N~203255~005~I-785~Jun 29, 2021
N~203255~002~ODE-81~Dec 15, 2021
N~203255~002~I-785~Jun 29, 2021
N~203255~001~ODE-81~Dec 15, 2021
N~203255~001~I-785~Jun 29, 2021
N~203255~003~ODE-81~Dec 15, 2021
N~203255~003~I-785~Jun 29, 2021
N~205382~001~M-172~Feb 24, 2019
N~203108~001~NCE~Jul 31, 2019
N~205579~001~ODE-69~Jul 22, 2021
N~204447~004~M-227~May 2, 2021
N~204447~004~M-234~Oct 19, 2021
N~204447~003~M-227~May 2, 2021
N~204447~003~M-234~Oct 19, 2021
N~204447~001~M-227~May 2, 2021
N~204447~001~M-234~Oct 19, 2021
N~204447~002~M-227~May 2, 2021
N~204447~002~M-234~Oct 19, 2021
N~207953~001~ODE-100~Oct 23, 2022
N~207953~001~NCE~Oct 23, 2020
N~207953~001~M-232~Jun 29, 2021
N~205739~001~NCE~Oct 21, 2020
N~205739~002~NCE~Oct 21, 2020
N~205739~003~NCE~Oct 21, 2020
N~207793~001~ODE-99~Oct 22, 2022
A~205573~001~PC~Mar 17, 2019
N~205103~001~NC~Sep 14, 2019
N~205103~002~NC~Sep 14, 2019
N~209115~003~NCE~Dec 19, 2021
N~209115~003~ODE-126~Dec 19, 2023
N~209115~003~I-772~Apr 6, 2021
N~209115~003~ODE-168~Apr 6, 2025
N~209115~002~NCE~Dec 19, 2021
N~209115~002~ODE-126~Dec 19, 2023
N~209115~002~I-772~Apr 6, 2021
N~209115~002~ODE-168~Apr 6, 2025
N~209115~001~NCE~Dec 19, 2021
N~209115~001~ODE-126~Dec 19, 2023
N~209115~001~I-772~Apr 6, 2021
N~209115~001~ODE-168~Apr 6, 2025
N~207695~001~NCE~Dec 14, 2021
N~209531~001~NCE~Dec 23, 2021
N~209531~001~ODE-127~Dec 23, 2023
N~209531~001~M-226~May 14, 2021
N~208400~001~ODE-137~Apr 25, 2024
N~208400~001~ODE-138~Apr 25, 2024
N~208630~001~ODE-146~Jun 6, 2024
N~209512~001~ODE-184~Jun 7, 2024
N~022063~001~NP~Jun 20, 2020
N~022063~002~NP~Jun 20, 2020
N~022063~003~NP~Jun 20, 2020
N~022063~004~NP~Jun 20, 2020
N~208610~001~NCE~Jun 19, 2022
N~205489~001~NP~Jun 19, 2020
N~205489~002~NP~Jun 19, 2020
N~205489~003~NP~Jun 19, 2020
N~209195~001~NCE~Jul 18, 2022
N~208587~001~ODE-150~Jul 7, 2024
N~208587~001~I-748~Jul 7, 2020
A~205128~001~PC~Aug 18, 2019
N~208751~001~NP~Sep 29, 2020
N~208751~002~NP~Sep 29, 2020
N~208716~001~I-768~Feb 26, 2021
N~208716~001~NCE~Sep 28, 2022
N~208716~002~I-768~Feb 26, 2021
N~208716~002~NCE~Sep 28, 2022
N~208716~004~I-768~Feb 26, 2021
N~208716~004~NCE~Sep 28, 2022
N~208716~003~I-768~Feb 26, 2021
N~208716~003~NCE~Sep 28, 2022
N~208843~002~ODE-177~Dec 21, 2024
N~208843~002~NP~Dec 21, 2020
N~208843~001~ODE-177~Dec 21, 2024
N~208843~001~NP~Dec 21, 2020
N~209360~001~NCE~Dec 21, 2022
N~209360~002~NCE~Dec 21, 2022
N~205598~001~ODE-170~Dec 20, 2024
N~205598~001~NCE~Dec 20, 2022
N~208912~001~NP~Feb 9, 2021
N~210491~001~NCE~Feb 12, 2023
N~210491~001~ODE-173~Feb 12, 2025
N~210251~001~NCE~Feb 7, 2023
N~210951~001~NCE~Feb 14, 2023
N~210867~001~NCE~Jun 13, 2023
N~210867~001~ODE-193~Jun 13, 2025
N~210498~001~NCE~Jun 27, 2023
N~210498~001~ODE-194~Jun 27, 2025
N~210496~002~NCE~Jun 27, 2023
N~210496~002~ODE-194~Jun 27, 2025
N~210496~001~NCE~Jun 27, 2023
N~210496~001~ODE-194~Jun 27, 2025
N~210793~001~NCE~Apr 29, 2021
N~206111~004~NCE~Aug 1, 2019
N~206111~004~I-739~Dec 2, 2019
N~206111~004~M-174~Mar 18, 2019
N~206111~003~NCE~Aug 1, 2019
N~206111~003~I-739~Dec 2, 2019
N~206111~003~M-174~Mar 18, 2019
N~206111~002~NCE~Aug 1, 2019
N~206111~002~I-739~Dec 2, 2019
N~206111~002~M-174~Mar 18, 2019
N~206111~001~NCE~Aug 1, 2019
N~206111~001~I-739~Dec 2, 2019
N~206111~001~M-174~Mar 18, 2019
N~207027~001~ODE-74~Aug 26, 2021
N~208437~001~NP~Dec 5, 2020
N~209637~001~NCE~Dec 5, 2022
N~208945~001~NCE~Dec 11, 2022
N~209196~001~NP~Dec 11, 2020
N~209196~002~NP~Dec 11, 2020
N~210493~001~NCE~Apr 19, 2023
N~209607~001~NP~Jul 30, 2021
N~209607~001~ODE-204~Jul 30, 2025
N~210923~001~NCE~Jul 31, 2023
N~210655~001~NP~Jul 27, 2021
N~210655~002~NP~Jul 27, 2021
N~210589~002~NCE~Jul 27, 2023
N~210589~002~ODE-202~Jul 27, 2025
N~210589~001~NCE~Jul 27, 2023
N~210589~001~ODE-202~Jul 27, 2025
N~211358~002~NP~Aug 7, 2021
N~211358~002~NCE~Jul 2, 2020
N~211358~002~ODE-195~Aug 7, 2025
N~211358~001~NP~Aug 7, 2021
N~211358~001~NCE~Jul 2, 2020
N~211358~001~ODE-195~Aug 7, 2025
N~209311~005~NP~Aug 8, 2021
N~209311~001~NP~Aug 8, 2021
N~209311~002~NP~Aug 8, 2021
N~209311~004~NP~Aug 8, 2021
N~209311~003~NP~Aug 8, 2021
N~208288~001~NP~Aug 8, 2021
N~210607~001~NCE~Jul 20, 2023
N~210607~001~NP~Aug 8, 2021
N~206940~002~NCE~May 27, 2020
N~206940~001~NCE~May 27, 2020
N~022526~001~NCE~Aug 18, 2020
N~208065~002~ODE-102~Nov 13, 2022
N~208065~002~NCE~Nov 13, 2020
N~208065~002~ODE-176~Apr 18, 2025
N~208065~002~I-774~Apr 18, 2021
N~208065~001~ODE-102~Nov 13, 2022
N~208065~001~NCE~Nov 13, 2020
N~208065~001~ODE-176~Apr 18, 2025
N~208065~001~I-774~Apr 18, 2021
N~208051~001~NCE~Jul 17, 2022
N~207501~001~ODE-90~Mar 6, 2022
N~207501~001~NCE~Mar 6, 2020
N~207500~001~ODE-90~Mar 6, 2022
N~207500~001~NCE~Mar 6, 2020
N~206910~002~ODE-39~Jan 23, 2020
N~206910~002~M-239~Dec 12, 2021
N~206910~003~ODE-39~Jan 23, 2020
N~206910~003~M-239~Dec 12, 2021
N~206910~001~ODE-39~Jan 23, 2020
N~206910~001~M-239~Dec 12, 2021
N~205636~001~NPP~Apr 28, 2019
N~204370~001~NCE~Sep 17, 2020
N~204370~001~M-213~Nov 9, 2020
N~204370~001~I-798~May 24, 2022
N~204370~002~NCE~Sep 17, 2020
N~204370~002~M-213~Nov 9, 2020
N~204370~002~I-798~May 24, 2022
N~204370~003~NCE~Sep 17, 2020
N~204370~003~M-213~Nov 9, 2020
N~204370~003~I-798~May 24, 2022
N~204370~004~NCE~Sep 17, 2020
N~204370~004~M-213~Nov 9, 2020
N~204370~004~I-798~May 24, 2022
N~203313~001~NCE~Sep 25, 2020
N~203313~001~NPP~Dec 16, 2019
N~203314~001~NCE~Sep 25, 2020
N~203314~001~NPP~Dec 16, 2019
N~203314~002~NCE~Sep 25, 2020
N~203314~002~NPP~Dec 16, 2019
N~208159~001~NCE~Sep 4, 2020
N~208159~001~ODE-104~Dec 11, 2022
N~207986~001~I-770~Mar 2, 2021
N~022225~001~NCE~Dec 15, 2020
N~022225~002~NCE~Dec 15, 2020
N~207988~001~NCE~Dec 22, 2020
N~207947~001~NCE~Dec 21, 2020
N~207947~001~ODE-106~Dec 21, 2022
N~207947~008~NCE~Dec 21, 2020
N~207947~008~ODE-106~Dec 21, 2022
N~207947~006~NCE~Dec 21, 2020
N~207947~006~ODE-106~Dec 21, 2022
N~207947~005~NCE~Dec 21, 2020
N~207947~005~ODE-106~Dec 21, 2022
N~207947~003~NCE~Dec 21, 2020
N~207947~003~ODE-106~Dec 21, 2022
N~207947~002~NCE~Dec 21, 2020
N~207947~002~ODE-106~Dec 21, 2022
N~207947~007~NCE~Dec 21, 2020
N~207947~007~ODE-106~Dec 21, 2022
N~207947~004~NCE~Dec 21, 2020
N~207947~004~ODE-106~Dec 21, 2022
N~208194~001~ODE-179~Dec 7, 2022
N~208434~001~NCE~Dec 11, 2020
N~208434~001~ODE-105~Dec 11, 2022
N~208434~001~ODE-159~Nov 6, 2024
N~208434~001~I-756~Nov 6, 2020
N~207155~001~ODE-110~Mar 10, 2023
N~208351~001~NCE~Nov 5, 2020
N~208351~001~M-207~Aug 21, 2020
N~208351~001~M-206~Aug 21, 2020
N~207154~001~NS~Feb 24, 2019
N~208010~001~NP~Jun 17, 2019
N~206143~002~NCE~Apr 15, 2020
N~206143~001~NCE~Apr 15, 2020
N~208261~001~NCE~Jan 28, 2021
N~209401~001~NP~Aug 3, 2020
N~209606~001~ODE-151~Aug 1, 2024
N~209606~001~NCE~Aug 1, 2022
N~209606~002~ODE-151~Aug 1, 2024
N~209606~002~NCE~Aug 1, 2022
N~209394~001~NCE~Aug 3, 2022
N~209394~001~M-230~Aug 6, 2021
N~209394~001~NPP~Apr 30, 2022
N~209394~001~ODE-232~Apr 30, 2026
N~209394~001~ODE-233~Apr 30, 2026
N~208558~002~I-762~Jan 12, 2021
N~208558~002~ODE-180~Aug 17, 2024
N~208558~002~ODE-181~Aug 17, 2024
N~208558~002~NCE~Dec 19, 2019
N~208558~002~NP~Aug 17, 2020
N~208558~002~ODE-83~Dec 19, 2021
N~208558~002~ODE-226~Dec 19, 2025
N~208558~002~I-776~Dec 19, 2021
N~208558~001~I-762~Jan 12, 2021
N~208558~001~ODE-180~Aug 17, 2024
N~208558~001~ODE-181~Aug 17, 2024
N~208558~001~NCE~Dec 19, 2019
N~208558~001~ODE-83~Dec 19, 2021
N~208558~001~NP~Aug 17, 2020
N~208558~001~ODE-226~Dec 19, 2025
N~208558~001~I-776~Dec 19, 2021
N~208944~001~ODE-153~Aug 24, 2024
N~208944~001~I-769~Aug 24, 2020
N~208944~002~ODE-153~Aug 24, 2024
N~208944~002~I-769~Aug 24, 2020
N~204958~001~NCE~Jun 22, 2020
N~206302~001~NC~Jun 3, 2019
N~207561~001~NCE~Nov 5, 2020
N~207561~001~NPP~Sep 25, 2020
N~207561~001~D-173~Dec 10, 2021
N~206192~001~NCE~Nov 10, 2020
N~206192~001~ODE-101~Nov 10, 2022
N~208271~001~NP~Jul 19, 2019
N~208624~001~NCE~Dec 19, 2019
N~208082~003~ODE-134~Apr 3, 2024
N~208082~003~NCE~Apr 3, 2022
N~208082~003~I-751~Aug 30, 2020
N~208082~001~ODE-134~Apr 3, 2024
N~208082~001~NCE~Apr 3, 2022
N~208082~001~I-751~Aug 30, 2020
N~208082~002~ODE-134~Apr 3, 2024
N~208082~002~NCE~Apr 3, 2022
N~208082~002~I-751~Aug 30, 2020
N~208694~001~NDF~May 30, 2020
N~208573~002~NCE~Apr 11, 2021
N~208573~002~ODE-114~Apr 11, 2023
N~208573~002~M-228~Jun 8, 2021
N~208573~002~I-782~Jun 8, 2021
N~208573~002~ODE-185~Jun 8, 2025
N~208573~002~I-789~Nov 21, 2021
N~208573~002~ODE-211~Nov 21, 2025
N~208573~002~I-795~May 15, 2022
N~208573~001~NCE~Apr 11, 2021
N~208573~001~ODE-114~Apr 11, 2023
N~208573~001~M-228~Jun 8, 2021
N~208573~001~I-782~Jun 8, 2021
N~208573~001~ODE-185~Jun 8, 2025
N~208573~001~I-789~Nov 21, 2021
N~208573~001~ODE-211~Nov 21, 2025
N~208573~001~I-795~May 15, 2022
N~208573~003~NCE~Apr 11, 2021
N~208573~003~ODE-114~Apr 11, 2023
N~208573~003~M-228~Jun 8, 2021
N~208573~003~I-782~Jun 8, 2021
N~208573~003~ODE-185~Jun 8, 2025
N~208573~003~I-789~Nov 21, 2021
N~208573~003~ODE-211~Nov 21, 2025
N~208573~003~I-795~May 15, 2022
N~206911~001~NP~Apr 8, 2019
N~208224~001~NP~Sep 16, 2019
N~206488~002~NCE~Sep 19, 2021
N~206488~002~ODE-122~Sep 19, 2023
N~206488~001~NCE~Sep 19, 2021
N~206488~001~ODE-122~Sep 19, 2023
N~205879~002~I-735~May 20, 2019
N~205879~002~I-788~Oct 29, 2021
N~205879~004~I-735~May 20, 2019
N~205879~004~I-788~Oct 29, 2021
N~205879~003~I-735~May 20, 2019
N~205879~003~I-788~Oct 29, 2021
N~205879~001~I-735~May 20, 2019
N~205879~001~I-788~Oct 29, 2021
N~210854~001~NCE~Oct 24, 2023
N~210854~002~NCE~Oct 24, 2023
N~203952~001~ODE-84~Jan 9, 2022
N~206073~001~NCE~Aug 1, 2019
N~206073~001~I-739~Dec 2, 2019
N~206073~002~NCE~Aug 1, 2019
N~206073~002~I-739~Dec 2, 2019
N~206316~001~NCE~Jan 8, 2020
N~206316~003~NCE~Jan 8, 2020
N~206316~002~NCE~Jan 8, 2020
N~207026~002~ODE-85~Jan 13, 2022
N~207026~001~ODE-85~Jan 13, 2022
N~022445~001~NDF~Aug 9, 2019
N~208447~001~ODE-133~Mar 27, 2024
N~208447~001~NCE~Mar 27, 2022
N~209570~001~ODE-154~Aug 29, 2024
N~209570~001~NCE~Aug 29, 2022
N~209570~002~ODE-154~Aug 29, 2024
N~209570~002~NCE~Aug 29, 2022
N~207997~001~NCE~Apr 28, 2022
N~207997~001~ODE-140~Apr 28, 2024
N~207997~001~ODE-141~Apr 28, 2024
N~208743~001~NCE~Apr 28, 2022
N~208772~002~NCE~Apr 28, 2022
N~208772~002~ODE-142~Apr 28, 2024
N~208772~001~NCE~Apr 28, 2022
N~208772~001~ODE-142~Apr 28, 2024
N~208772~003~ODE-142~Apr 28, 2024
N~208772~003~NCE~Apr 28, 2022
N~205555~003~ODE-191~May 1, 2024
N~205555~003~ODE-143~May 1, 2024
N~205555~001~ODE-191~May 1, 2024
N~205555~001~ODE-143~May 1, 2024
N~205555~002~ODE-191~May 1, 2024
N~205555~002~ODE-143~May 1, 2024
N~209482~001~I-775~Apr 24, 2021
N~209022~001~NP~Sep 18, 2020
N~209363~001~NCE~Sep 15, 2022
N~209936~001~NCE~Sep 14, 2022
N~209936~001~ODE-155~Sep 14, 2024
N~209279~001~NP~Sep 5, 2020
N~209279~001~ODE-161~Sep 5, 2024
N~210259~001~ODE-175~Oct 31, 2024
N~210259~001~NCE~Oct 31, 2022
N~210709~001~NP~Nov 14, 2020
N~208462~002~NCE~Nov 20, 2020
N~208462~002~ODE-103~Nov 20, 2022
N~208462~001~NCE~Nov 20, 2020
N~208462~001~ODE-103~Nov 20, 2022
N~208462~003~NCE~Nov 20, 2020
N~208462~003~ODE-103~Nov 20, 2022
A~203560~002~PC~Apr 5, 2019
A~203560~001~PC~Apr 5, 2019
A~203560~003~PC~Apr 5, 2019
N~208794~001~NCE~Feb 28, 2022
N~208794~001~ODE-132~Feb 28, 2024
N~209091~001~NC~Feb 27, 2020
N~209091~001~M-175~Apr 5, 2019
N~209091~001~NCE~Jan 8, 2019
N~208399~001~NCE~Sep 1, 2020
N~209939~002~ODE-165~Nov 8, 2024
N~209939~002~NCE~Nov 8, 2022
N~209939~001~ODE-165~Nov 8, 2024
N~209939~001~NCE~Nov 8, 2022
N~209940~002~ODE-165~Nov 8, 2024
N~209940~002~NCE~Nov 8, 2022
N~209940~001~ODE-165~Nov 8, 2024
N~209940~001~NCE~Nov 8, 2022
A~090141~002~PC~Mar 26, 2019
A~090141~004~PC~Mar 26, 2019
A~090141~001~PC~Mar 26, 2019
A~090141~003~PC~Mar 26, 2019
N~205836~004~NCE~May 12, 2021
N~205836~003~NCE~May 12, 2021
N~205836~001~NCE~May 12, 2021
N~205836~005~NCE~May 12, 2021
N~205836~002~NCE~May 12, 2021
N~205837~001~NCE~May 12, 2021
N~205838~001~NCE~May 12, 2021
N~208079~001~NDF~Feb 5, 2019
N~208246~001~I-761~Dec 14, 2020
N~208791~001~NP~Sep 26, 2020
N~209819~002~NP~Nov 30, 2020
N~209819~001~NP~Nov 30, 2020
N~208081~001~NP~May 10, 2019
N~208144~001~NP~Dec 22, 2020
N~209521~003~NCE~Oct 1, 2023
N~209521~002~NCE~Oct 1, 2023
N~209521~001~NCE~Oct 1, 2023
N~207356~001~ODE-214~Sep 28, 2025
N~208700~001~NCE~Jan 26, 2023
N~208700~001~ODE-166~Jan 26, 2025
N~210563~001~M-236~Jan 25, 2022
N~210563~002~M-236~Jan 25, 2022
N~210563~003~M-236~Jan 25, 2022
N~210563~004~M-236~Jan 25, 2022
N~209381~001~NP~May 4, 2021
N~210132~001~NP~Oct 28, 2021
N~208547~001~ODE-120~Jun 1, 2023
N~208547~001~NCE~Jun 1, 2021
N~208510~004~M-188~Oct 14, 2019
N~208510~005~M-188~Oct 14, 2019
N~208510~001~M-188~Oct 14, 2019
N~208510~003~M-188~Oct 14, 2019
N~208510~006~M-188~Oct 14, 2019
N~208510~002~M-188~Oct 14, 2019
N~208799~003~NP~Jan 27, 2020
N~208799~001~NP~Jan 27, 2020
N~208799~002~NP~Jan 27, 2020
N~208798~002~NP~Jan 27, 2020
N~208798~001~NP~Jan 27, 2020
N~208798~003~NP~Jan 27, 2020
N~208611~001~NCE~Jun 19, 2022
N~022517~001~NP~Jun 21, 2021
N~022517~002~NP~Jun 21, 2021
N~207987~002~ODE-192~Jun 21, 2025
N~207987~001~ODE-192~Jun 21, 2025
N~210450~001~NCE~Jul 23, 2023
N~210450~002~NCE~Jul 23, 2023
N~210565~001~NP~Aug 22, 2021
N~209353~001~NDF~Aug 23, 2021
N~206709~001~ODE-198~Aug 20, 2025
N~206709~001~NCE~Aug 20, 2023
N~206709~002~ODE-198~Aug 20, 2025
N~206709~002~NCE~Aug 20, 2023
N~207223~002~ODE-198~Aug 20, 2025
N~207223~002~NCE~Aug 20, 2023
N~207223~001~ODE-198~Aug 20, 2025
N~207223~001~NCE~Aug 20, 2023
N~208114~001~ODE-112~Mar 30, 2023
N~208114~001~NCE~Mar 30, 2021
A~200630~001~PC~Feb 5, 2019
A~211067~002~CGT~Mar 6, 2019
A~211067~001~CGT~Feb 25, 2019
N~211109~001~NCE~Aug 27, 2023
N~210807~001~NCE~Aug 30, 2023
N~210806~001~NCE~Aug 30, 2023
N~209863~003~NP~Sep 28, 2021
N~209863~001~NP~Sep 28, 2021
N~209863~002~NP~Sep 28, 2021
N~209816~001~NCE~Oct 2, 2023
N~209817~001~NCE~Oct 2, 2023
N~211172~001~NCE~Oct 5, 2023
N~211172~001~ODE-212~Oct 5, 2025
N~210331~001~NP~Nov 12, 2021
N~206356~001~D-169~Sep 1, 2020
N~208090~004~NP~Apr 26, 2019
N~208090~002~NP~Apr 26, 2019
N~208090~003~NP~Apr 26, 2019
N~208090~001~NP~Apr 26, 2019
N~208090~005~NP~Apr 26, 2019
N~208692~001~NP~Apr 25, 2019
N~208692~001~I-760~Dec 19, 2020
N~208692~001~ODE-227~Jan 14, 2026
N~208692~001~I-792~Jan 14, 2022
N~208692~002~NP~Apr 25, 2019
N~208692~002~I-760~Dec 19, 2020
N~208692~002~ODE-227~Jan 14, 2026
N~208692~002~I-792~Jan 14, 2022
N~208692~003~NP~Apr 25, 2019
N~208692~003~I-760~Dec 19, 2020
N~208692~003~ODE-227~Jan 14, 2026
N~208692~003~I-792~Jan 14, 2022
N~207318~002~NCE~Apr 29, 2021
N~207318~001~NCE~Apr 29, 2021
N~208251~001~NC~Apr 29, 2019
N~207103~001~NCE~Feb 3, 2020
N~207103~001~I-725~Feb 19, 2019
N~207103~003~NCE~Feb 3, 2020
N~207103~003~I-725~Feb 19, 2019
N~207103~002~NCE~Feb 3, 2020
N~207103~002~I-725~Feb 19, 2019
A~206863~001~PC~Mar 9, 2019
N~208845~001~NP~Oct 6, 2020
N~209112~001~ODE-160~Oct 2, 2024
N~209501~001~NP~Oct 11, 2020
N~209501~002~NP~Oct 11, 2020
N~209501~003~NP~Oct 11, 2020
N~207648~001~NCE~Jul 13, 2021
N~207648~003~NCE~Jul 13, 2021
N~207648~002~NCE~Jul 13, 2021
N~207648~004~NCE~Jul 13, 2021
N~208398~001~NS~Oct 19, 2019
N~204441~004~I-779~Apr 23, 2021
N~204441~004~ODE-178~Apr 23, 2025
N~204441~005~I-779~Apr 23, 2021
N~204441~005~ODE-178~Apr 23, 2025
N~204441~001~I-779~Apr 23, 2021
N~204441~001~ODE-178~Apr 23, 2025
N~204441~002~I-779~Apr 23, 2021
N~204441~002~ODE-178~Apr 23, 2025
N~204441~003~I-779~Apr 23, 2021
N~204441~003~ODE-178~Apr 23, 2025
N~207078~002~NCE~May 18, 2023
N~207078~001~NCE~May 18, 2023
N~210238~001~NCE~May 21, 2023
N~209229~001~NCE~May 16, 2023
N~208627~001~NCE~Jul 13, 2023
N~208627~001~ODE-200~Jul 13, 2025
N~210455~001~NC~Jul 17, 2020
N~210455~001~NCE~Nov 5, 2020
N~211192~001~NCE~Jul 20, 2023
N~211192~001~ODE-203~Jul 20, 2025
N~210795~001~NCE~Jul 20, 2023
N~210795~001~ODE-201~Jul 20, 2025
N~208471~002~NCE~Jul 27, 2021
N~208471~001~NCE~Jul 27, 2021
N~206030~001~ODE-124~Oct 7, 2023
N~207202~005~I-746~Jul 27, 2020
N~207202~001~I-746~Jul 27, 2020
N~207202~004~I-746~Jul 27, 2020
N~207202~006~I-746~Jul 27, 2020
N~207202~002~I-746~Jul 27, 2020
N~207202~003~I-746~Jul 27, 2020
N~210192~001~NC~Nov 21, 2020
N~211288~003~ODE-206~Sep 27, 2025
N~211288~003~NCE~Sep 27, 2023
N~211288~003~ODE-213~Sep 27, 2025
N~211288~001~ODE-206~Sep 27, 2025
N~211288~001~NCE~Sep 27, 2023
N~211288~001~ODE-213~Sep 27, 2025
N~211288~002~ODE-206~Sep 27, 2025
N~211288~002~NCE~Sep 27, 2023
N~211288~002~ODE-213~Sep 27, 2025
A~211483~001~CGT~Mar 20, 2019
N~206500~001~NCE~Sep 1, 2020
N~208169~001~ODE-98~Sep 4, 2022
N~208169~001~NCE~Sep 4, 2020
N~207981~001~NCE~Sep 22, 2020
N~207981~001~I-794~Feb 24, 2022
N~207981~001~ODE-229~Feb 22, 2026
N~207981~002~NCE~Sep 22, 2020
N~207981~002~I-794~Feb 24, 2022
N~207981~002~ODE-229~Feb 22, 2026
N~207533~004~NCE~Oct 5, 2020
N~207533~003~NCE~Oct 5, 2020
N~207533~002~NCE~Oct 5, 2020
N~207533~001~NCE~Oct 5, 2020
N~208984~001~NP~Nov 4, 2019
N~208583~001~NCE~Sep 25, 2020
N~208583~001~NC~Nov 21, 2019
N~208673~001~NC~Nov 21, 2019
N~208673~001~NCE~Jul 27, 2021
N~208073~001~NCE~Jul 11, 2021
N~208325~001~NCE~Feb 7, 2022
N~208325~003~NCE~Feb 7, 2022
N~208325~002~NCE~Feb 7, 2022
N~208684~003~ODE-130~Feb 9, 2024
N~208684~003~NCE~Feb 9, 2022
N~208684~004~ODE-130~Feb 9, 2024
N~208684~004~NCE~Feb 9, 2022
N~208684~001~ODE-130~Feb 9, 2024
N~208684~001~NCE~Feb 9, 2022
N~208684~002~ODE-130~Feb 9, 2024
N~208684~002~NCE~Feb 9, 2022
N~208685~001~ODE-130~Feb 9, 2024
N~208685~001~NCE~Feb 9, 2022
N~208470~001~NCE~Nov 16, 2021
N~208464~001~NP~Nov 11, 2019
N~208464~001~NCE~Nov 5, 2020
N~209092~001~NCE~Mar 13, 2022
N~209092~001~I-784~Jul 18, 2021
N~209092~001~I-783~Jul 18, 2021
N~207145~002~NCE~Mar 21, 2022
N~207145~001~NCE~Mar 21, 2022
N~201656~002~NP~Mar 3, 2020
N~201656~001~NP~Mar 3, 2020
N~208854~001~NCE~Mar 23, 2022
N~207962~001~NP~Feb 28, 2021
N~209210~001~NP~Oct 20, 2020
N~206038~002~NPP~Sep 28, 2019
N~206038~002~ODE-93~Jul 2, 2022
N~206038~002~NCE~Jul 2, 2020
N~206038~002~ODE-123~Sep 28, 2023
N~206038~002~M-218~Jan 25, 2021
N~206038~001~ODE-93~Jul 2, 2022
N~206038~001~NCE~Jul 2, 2020
N~206038~001~ODE-123~Sep 28, 2023
N~206038~001~M-218~Jan 25, 2021
N~205422~002~NCE~Jul 10, 2020
N~205422~002~M-186~Sep 23, 2019
N~205422~003~NCE~Jul 10, 2020
N~205422~003~M-186~Sep 23, 2019
N~205422~005~NCE~Jul 10, 2020
N~205422~005~M-186~Sep 23, 2019
N~205422~006~NCE~Jul 10, 2020
N~205422~006~M-186~Sep 23, 2019
N~205422~001~NCE~Jul 10, 2020
N~205422~001~M-186~Sep 23, 2019
N~205422~004~NCE~Jul 10, 2020
N~205422~004~M-186~Sep 23, 2019
N~206843~002~NCE~Jul 24, 2020
N~206843~002~I-727~Feb 5, 2019
N~206843~002~I-726~Feb 5, 2019
N~206843~002~D-161~Feb 5, 2019
N~206843~002~D-162~Feb 5, 2019
N~206843~001~NCE~Jul 24, 2020
N~206843~001~I-727~Feb 5, 2019
N~206843~001~I-726~Feb 5, 2019
N~206843~001~D-161~Feb 5, 2019
N~206843~001~D-162~Feb 5, 2019
N~205266~001~NCE~Jul 24, 2020
N~207931~001~NCE~Dec 19, 2019
N~206406~002~ODE-94~Jul 10, 2022
N~206406~003~ODE-94~Jul 10, 2022
N~206406~001~ODE-94~Jul 10, 2022
N~206995~001~ODE-95~Jul 13, 2022
N~207620~002~NCE~Jul 7, 2020
N~207620~003~NCE~Jul 7, 2020
N~207620~001~NCE~Jul 7, 2020
A~204268~001~PC~Apr 10, 2019
N~208215~001~NCE~Nov 5, 2020
N~208215~001~NPP~Sep 25, 2020
N~203324~002~ODE-121~Jul 15, 2023
N~203324~002~ODE-116~Apr 15, 2023
N~203324~002~NP~Apr 15, 2019
N~203324~001~ODE-121~Jul 15, 2023
N~203324~001~ODE-116~Apr 15, 2023
N~203324~001~NP~Apr 15, 2019
N~204630~001~ODE-113~Apr 8, 2023
N~208294~001~NP~Apr 25, 2019
N~208054~001~NCE~May 27, 2021
N~207999~001~ODE-119~May 27, 2023
N~207999~001~NCE~May 27, 2021
N~207999~002~ODE-119~May 27, 2023
N~207999~002~NCE~May 27, 2021
N~204442~001~NP~May 26, 2019
N~207968~001~M-239~Dec 12, 2021
N~207968~002~M-239~Dec 12, 2021
N~207968~003~M-239~Dec 12, 2021
N~209310~001~NP~Dec 8, 2020
N~208564~001~NP~May 29, 2021
N~208564~002~NP~May 29, 2021
N~210045~003~NC~May 31, 2021
N~210045~001~NC~May 31, 2021
N~210045~002~NC~May 31, 2021
N~207924~001~NCE~May 31, 2023
N~208254~001~NCE~Dec 18, 2022
N~209305~001~NP~Dec 14, 2020
N~209805~001~NCE~Dec 19, 2022
N~209805~002~NCE~Dec 19, 2022
N~209803~002~NCE~Dec 19, 2022
N~209803~001~NCE~Dec 19, 2022
N~209806~004~NCE~Dec 19, 2022
N~209806~001~NCE~Dec 19, 2022
N~209806~002~NCE~Dec 19, 2022
N~209806~003~NCE~Dec 19, 2022
N~206947~002~NCE~Feb 13, 2020
N~206947~002~ODE-87~Feb 13, 2022
N~206947~002~I-734~May 13, 2019
N~206947~002~I-787~Aug 15, 2021
N~206947~002~ODE-196~Aug 15, 2025
N~206947~001~NCE~Feb 13, 2020
N~206947~001~ODE-87~Feb 13, 2022
N~206947~001~I-734~May 13, 2019
N~206947~001~I-787~Aug 15, 2021
N~206947~001~ODE-196~Aug 15, 2025
N~205353~002~NCE~Feb 23, 2020
N~205353~002~ODE-89~Feb 23, 2022
N~205353~003~NCE~Feb 23, 2020
N~205353~003~ODE-89~Feb 23, 2022
N~205353~001~NCE~Feb 23, 2020
N~205353~001~ODE-89~Feb 23, 2022
N~205750~002~ODE-91~Mar 17, 2022
N~205750~002~NCE~Mar 17, 2020
N~205750~001~ODE-91~Mar 17, 2022
N~205750~001~NCE~Mar 17, 2020
N~207925~003~ODE-190~May 15, 2025
N~207925~003~ODE-199~Jul 31, 2020
N~207925~003~ODE-189~May 17, 2024
N~207925~003~ODE-188~Jul 31, 2024
N~207925~003~NPP~Jul 31, 2020
N~207925~001~ODE-20~Jan 31, 2019
N~207925~001~NPP~Jul 31, 2020
N~207925~001~ODE-188~Mar 17, 2022
N~207925~001~ODE-189~Jul 31, 2024
N~207925~001~ODE-190~May 17, 2024
N~207925~001~ODE-199~Aug 15, 2025
N~207925~002~ODE-20~Jan 31, 2019
N~207925~002~NPP~Jul 31, 2020
N~207925~002~ODE-188~Mar 17, 2022
N~207925~002~ODE-189~Jul 31, 2024
N~207925~002~ODE-190~May 17, 2024
N~207925~002~ODE-199~Aug 15, 2025
N~210566~001~NDF~May 24, 2021
N~209830~001~NCE~Oct 5, 2020
A~211139~002~CGT~Mar 30, 2019
A~211139~001~CGT~Mar 26, 2019
N~208341~001~NCE~Jun 28, 2021
N~208341~001~NPP~Aug 1, 2020
N~208032~001~NC~Jun 29, 2019
N~209935~001~NCE~Mar 13, 2022
N~209176~001~NCE~May 5, 2022
N~209176~001~ODE-144~May 5, 2024
N~207621~005~NC~Aug 19, 2019
N~207621~003~NC~Aug 19, 2019
N~207621~004~NC~Aug 19, 2019
N~207621~006~NC~Aug 19, 2019
N~207621~001~NC~Aug 19, 2019
N~207621~002~NC~Aug 19, 2019
N~209963~001~NCE~Dec 14, 2022
N~209299~002~ODE-174~Apr 17, 2025
N~209299~002~NCE~Apr 17, 2023
N~209299~001~ODE-174~Apr 17, 2025
N~209299~001~NCE~Apr 17, 2023
N~209566~001~ODE-207~Sep 14, 2025
N~211155~001~NCE~Sep 24, 2023
N~211155~001~ODE-208~Sep 24, 2025
N~211155~001~ODE-209~Sep 24, 2025
N~211155~002~NCE~Sep 24, 2023
N~211155~002~ODE-208~Sep 24, 2025
N~211155~002~ODE-209~Sep 24, 2025
N~209355~001~NP~Nov 6, 2021
N~205920~001~NP~Nov 7, 2021
N~210868~001~NCE~Nov 2, 2023
N~210868~001~ODE-218~Nov 2, 2025
N~210868~001~ODE-217~Nov 2, 2025
N~210868~001~ODE-219~Nov 2, 2025
N~210868~002~NCE~Nov 2, 2023
N~210868~002~ODE-218~Nov 2, 2025
N~210868~002~ODE-219~Nov 2, 2025
N~210868~002~ODE-217~Nov 2, 2025
N~209128~001~NP~Nov 2, 2021
N~209483~001~NP~Nov 28, 2020
N~210365~001~NCE~Sep 28, 2023
N~210365~001~ODE-216~Sep 28, 2025
N~210303~001~NCE~Jun 25, 2023
N~209627~001~NCE~Aug 10, 2023
N~208623~001~NCE~Aug 10, 2023
N~208623~001~ODE-205~Aug 10, 2025
N~210922~001~ODE-197~Aug 10, 2025
N~210922~001~NCE~Aug 10, 2023
N~206756~001~NCE~Jul 31, 2019
N~206756~001~M-173~Mar 18, 2019
N~206756~001~M-233~Oct 5, 2021
N~208658~003~I-739~Dec 2, 2019
N~208658~003~NCE~Aug 1, 2019
N~208658~004~I-739~Dec 2, 2019
N~208658~004~NCE~Aug 1, 2019
N~208658~001~I-739~Dec 2, 2019
N~208658~001~NCE~Aug 1, 2019
N~208658~002~I-739~Dec 2, 2019
N~208658~002~NCE~Aug 1, 2019
N~208780~003~NCE~Oct 15, 2019
N~208780~003~ODE-77~Oct 15, 2021
N~208780~002~NCE~Oct 15, 2019
N~208780~002~ODE-77~Oct 15, 2021
N~208780~001~NCE~Oct 15, 2019
N~208780~001~ODE-77~Oct 15, 2021
N~208552~001~NP~Jan 18, 2020
N~208745~001~NCE~Jan 19, 2022
N~208745~001~I-764~Jan 24, 2021
N~208264~001~ODE-129~Jan 26, 2024
N~208264~001~I-747~Jan 26, 2020
N~208264~002~ODE-129~Jan 26, 2024
N~208264~002~I-747~Jan 26, 2020
N~209241~001~NCE~Apr 11, 2022
N~209241~002~NCE~Apr 11, 2022
N~209777~003~NP~Apr 20, 2020
N~209777~001~NP~Apr 20, 2020
N~209777~002~NP~Apr 20, 2020
N~208956~001~NP~Jun 29, 2020
N~208956~001~ODE-149~Jun 29, 2024
N~208383~001~NCE~Jun 23, 2022
N~208383~002~NCE~Jun 23, 2022
N~208742~001~NP~Nov 30, 2021
N~210598~001~NCE~Nov 9, 2023
N~210656~002~NCE~Nov 21, 2023
N~210656~002~ODE-224~Nov 21, 2025
N~210656~001~NCE~Nov 21, 2023
N~210656~001~ODE-224~Nov 21, 2025
N~211580~001~NP~Nov 21, 2021
N~210861~001~ODE-221~Nov 26, 2025
N~210861~001~ODE-215~Nov 26, 2025
N~210861~001~ODE-220~Nov 26, 2025
N~210861~001~NCE~Nov 26, 2023
N~210861~002~ODE-215~Nov 26, 2025
N~210861~002~ODE-220~Nov 26, 2025
N~210861~002~ODE-221~Nov 26, 2025
N~210861~002~NCE~Nov 26, 2023
N~211710~001~ODE-215~Nov 26, 2025
N~211710~001~ODE-220~Nov 26, 2025
N~211710~001~ODE-221~Nov 26, 2025
N~211710~001~NCE~Nov 26, 2023
N~211996~001~NCE~May 3, 2024
N~212161~001~NCE~May 3, 2024
N~207964~001~NP~Nov 20, 2021
N~209184~001~NP~Dec 21, 2021
N~209354~001~NP~Apr 25, 2022
N~210872~001~NP~Apr 26, 2022
N~209379~001~NCE~Apr 30, 2024
N~208219~001~NS~Feb 22, 2022
N~212038~002~NP~Feb 27, 2022
N~212038~005~NP~Feb 27, 2022
N~212038~004~NP~Feb 27, 2022
N~212038~001~NP~Feb 27, 2022
N~212038~006~NP~Feb 27, 2022
N~212038~003~NP~Feb 27, 2022
N~212018~001~NCE~Apr 12, 2024
N~212018~002~NCE~Apr 12, 2024
N~212018~003~NCE~Apr 12, 2024
N~208711~001~ODE-228~Feb 13, 2026
N~208711~001~NCE~Feb 13, 2024
N~209884~002~NCE~Mar 26, 2024
N~209884~001~NCE~Mar 26, 2024
N~210595~001~NC~Mar 29, 2022
N~022561~001~NP~Mar 29, 2022
N~211367~001~NP~May 23, 2022
A~212260~001~CGT~Nov 27, 2019
N~208078~001~NCE~Nov 28, 2023
N~208078~001~ODE-223~Nov 28, 2025
N~211349~001~ODE-222~Nov 28, 2025
N~211349~001~NCE~Nov 28, 2023
N~206976~001~NP~Dec 19, 2021
N~210166~002~NCE~Dec 14, 2023
N~210166~001~NCE~Dec 14, 2023
A~211694~001~CGT~Sep 4, 2019
N~211994~001~NC~Apr 8, 2022
N~209964~001~NCE~Apr 15, 2020
N~209964~001~NP~Apr 22, 2022
N~209964~001~ODE-234~Apr 22, 2026
N~211225~001~NCE~Apr 29, 2019
A~211750~001~CGT~Jul 16, 2019
A~211484~001~CGT~Jun 11, 2019
A~211642~002~CGT~Oct 2, 2019
A~211642~001~CGT~Oct 2, 2019
A~211642~004~CGT~Oct 2, 2019
A~211642~003~CGT~Oct 2, 2019
N~202408~001~ODE-235~Mar 29, 2026
A~208327~001~PC~Apr 29, 2019
N~211243~001~NCE*~Mar 5, 2024
N~208259~001~NCE~Dec 18, 2022
N~208259~001~NC~Mar 12, 2022
N~211321~001~NP~May 21, 2022
N~212526~003~NCE~May 24, 2024
N~212526~001~NCE~May 24, 2024
N~212526~002~NCE~May 24, 2024
N~021928~002~PED~Aug 22, 2022
N~021928~001~PED~Aug 22, 2022
N~021928~002~PED~Feb 12, 2020
N~021928~001~PED~Feb 12, 2020
N~021928~002~PED~Jun 16, 2020
N~021928~001~PED~Jun 16, 2020
N~021929~001~PED~Jul 27, 2020
N~021938~004~PED~May 16, 2021
N~021938~003~PED~May 16, 2021
N~021938~002~PED~May 16, 2021
N~021938~001~PED~May 16, 2021
N~021986~006~PED~Jun 21, 2026
N~021986~005~PED~Jun 21, 2026
N~021986~004~PED~Jun 21, 2026
N~021986~003~PED~Jun 21, 2026
N~021986~002~PED~Jun 21, 2026
N~021986~001~PED~Jun 21, 2026
N~021986~006~PED~Jun 21, 2022
N~021986~005~PED~Jun 21, 2022
N~021986~004~PED~Jun 21, 2022
N~021986~003~PED~Jun 21, 2022
N~021986~002~PED~Jun 21, 2022
N~021986~001~PED~Jun 21, 2022
N~021986~006~PED~May 9, 2021
N~021986~005~PED~May 9, 2021
N~021986~004~PED~May 9, 2021
N~021986~003~PED~May 9, 2021
N~021986~002~PED~May 9, 2021
N~021986~001~PED~May 9, 2021
N~021986~006~PED~May 9, 2025
N~021986~005~PED~May 9, 2025
N~021986~004~PED~May 9, 2025
N~021986~003~PED~May 9, 2025
N~021986~002~PED~May 9, 2025
N~021986~001~PED~May 9, 2025
N~022023~002~PED~Oct 3, 2021
N~022023~001~PED~Oct 3, 2021
N~022068~002~PED~Jun 22, 2021
N~022068~001~PED~Jun 22, 2021
N~022068~003~PED~Sep 22, 2021
N~022068~002~PED~Sep 22, 2021
N~022068~001~PED~Sep 22, 2021
N~022068~003~PED~Sep 22, 2025
N~022068~003~PED~Sep 22, 2025
N~022068~002~PED~Sep 22, 2025
N~022068~002~PED~Sep 22, 2025
N~022068~001~PED~Sep 22, 2025
N~022068~001~PED~Sep 22, 2025
N~022145~002~PED~May 22, 2021
N~022145~001~PED~May 22, 2021
N~022145~001~PED~Nov 26, 2020
N~022145~002~PED~Nov 26, 2020
N~021196~001~PED~Apr 26, 2022
N~021356~004~PED~Jun 11, 2022
N~021356~003~PED~Jun 11, 2022
N~021356~002~PED~Jun 11, 2022
N~021356~001~PED~Jun 11, 2022
N~021368~004~PED~Aug 15, 2021
N~021368~003~PED~Aug 15, 2021
N~021368~002~PED~Aug 15, 2021
N~021368~001~PED~Aug 15, 2021
N~021446~008~PED~Nov 3, 2021
N~021446~007~PED~Nov 3, 2021
N~021446~006~PED~Nov 3, 2021
N~021446~005~PED~Nov 3, 2021
N~021446~004~PED~Nov 3, 2021
N~021446~003~PED~Nov 3, 2021
N~021446~002~PED~Nov 3, 2021
N~021446~001~PED~Nov 3, 2021
N~021446~008~PED~Jun 22, 2020
N~021446~007~PED~Jun 22, 2020
N~021446~006~PED~Jun 22, 2020
N~021446~005~PED~Jun 22, 2020
N~021446~004~PED~Jun 22, 2020
N~021446~003~PED~Jun 22, 2020
N~021446~002~PED~Jun 22, 2020
N~021446~001~PED~Jun 22, 2020
N~021602~001~PED~Mar 14, 2019
N~021602~001~PED~Apr 8, 2022
N~022187~003~PED~Jan 16, 2022
N~022187~002~PED~Jan 16, 2022
N~022187~001~PED~Jan 16, 2022
N~022212~001~PED~Dec 13, 2019
N~022291~001~PED~Feb 26, 2022
N~022291~005~PED~Feb 26, 2022
N~022291~004~PED~Feb 26, 2022
N~022291~003~PED~Feb 26, 2022
N~022291~002~PED~Feb 26, 2022
N~022307~002~PED~Jan 12, 2020
N~022307~001~PED~Jan 12, 2020
N~022334~004~PED~Oct 26, 2019
N~022334~003~PED~Oct 26, 2019
N~022334~002~PED~Oct 26, 2019
N~022334~001~PED~Oct 26, 2019
N~022363~003~PED~Nov 16, 2022
N~022363~002~PED~Nov 16, 2022
N~022363~001~PED~Nov 16, 2022
N~022450~001~PED~Jul 27, 2020
N~022488~001~PED~Nov 3, 2021
N~022488~001~PED~Jun 22, 2020
N~022527~002~PED~Nov 11, 2021
N~022527~001~PED~Nov 11, 2021
N~022577~001~PED~Jun 11, 2022
N~200603~005~PED~Jul 27, 2020
N~200603~003~PED~Jul 27, 2020
N~200603~001~PED~Jul 27, 2020
N~200603~005~PED~Jul 27, 2020
N~200603~003~PED~Jul 27, 2020
N~200603~002~PED~Jul 27, 2020
N~200603~001~PED~Jul 27, 2020
N~201023~001~PED~Nov 17, 2020
N~021936~002~PED~Aug 15, 2020
N~021936~001~PED~Aug 15, 2020
N~021936~002~PED~Mar 15, 2019
N~206307~001~PED~Jun 17, 2020
N~205388~001~PED~Jun 8, 2021
N~206352~001~PED~Mar 24, 2019
N~203045~002~PED~May 22, 2021
N~203045~001~PED~May 22, 2021
N~203389~002~PED~Jun 22, 2021
N~203389~001~PED~Jun 22, 2021
N~203389~002~PED~Feb 14, 2023
N~203389~001~PED~Feb 14, 2023
N~203389~002~PED~Oct 30, 2020
N~203389~001~PED~Oct 30, 2020
N~203441~001~PED~Jun 21, 2020
N~204427~001~PED~Jan 7, 2020
N~205786~001~PED~May 22, 2021
N~207953~001~PED~Dec 29, 2021
N~207953~001~PED~Apr 23, 2021
N~207953~001~PED~Apr 23, 2023
N~207027~001~PED~Feb 26, 2022
N~206143~002~PED~Oct 15, 2020
N~206143~001~PED~Oct 15, 2020
N~208694~001~PED~Nov 30, 2020
N~210709~001~PED~May 14, 2021
N~209501~003~PED~Apr 11, 2021
N~209501~002~PED~Apr 11, 2021
N~209501~001~PED~Apr 11, 2021
N~209964~001~PED~Oct 22, 2026
N~209964~001~PED~Oct 22, 2022
N~209964~001~PED~Oct 15, 2020
N~021883~001~GAIN~May 23, 2024
N~205436~001~GAIN~Jun 20, 2024
N~205435~001~GAIN~Jun 20, 2024
N~206829~001~GAIN~Dec 19, 2024
N~206334~001~GAIN~Aug 6, 2024
N~207500~001~GAIN~Mar 6, 2027
N~207501~001~GAIN~Mar 6, 2027
N~207500~001~GAIN~Mar 6, 2025
N~207501~001~GAIN~Mar 6, 2025
N~208611~001~GAIN~Jun 19, 2027
N~208610~001~GAIN~Jun 19, 2027
N~210303~001~GAIN~Jun 25, 2028
N~211109~001~GAIN~Aug 27, 2028
N~209363~001~GAIN~Sep 15, 2027
N~209816~001~GAIN~Oct 2, 2028
N~209817~001~GAIN~Oct 2, 2028